*** Life<FredkinCell> 2x8 ***

Generation = 0, Population = 3.
-0------
-0----0-

Generation = 1, Population = 9.
010---0-
010--0-0

Generation = 2, Population = 6.
-2-0----
-2-00-0-

*** Life<FredkinCell> 4x6 ***

Generation = 0, Population = 3.
----0-
0-----
---0--
------

Generation = 1, Population = 10.
0--0-0
-0-00-
0-0-0-
---0--

Generation = 2, Population = 9.
--010-
0-0---
-0--10
0-----

Generation = 3, Population = 13.
00--10
-01--0
0--021
----00

Generation = 4, Population = 10.
1--12-
0-2-0-
---132
0-----

*** Life<FredkinCell> 12x7 ***

Generation = 0, Population = 7.
-------
-------
-------
---0--0
-------
-------
-0-----
-----0-
-0-----
0-0----
-------
-------

Generation = 1, Population = 18.
-------
-------
---0--0
--0-00-
---0--0
-0-----
0-0--0-
----0-0
-----0-
-0-0---
0-0----
-------

Generation = 2, Population = 23.
-------
---0--0
-------
-0--110
-0-----
---0-00
-0-0---
0-00---
-0-0---
--0-00-
-0-----
0-0----

Generation = 3, Population = 43.
---0--0
--0-00-
-0-000-
01002-1
01000--
--01-11
--0-000
--110--
---1-0-
-0-0110
--0-00-
-0-0---

*** Life<FredkinCell> 5x10 ***

Generation = 0, Population = 7.
---0------
----000---
-------0--
0---------
--0-------

Generation = 1, Population = 15.
--0--00---
----1-1---
0---00--0-
-00----0--
00-0------

Generation = 2, Population = 24.
-0-0-1-0--
0-002-200-
--00-1---0
0-1-000---
1-0-0--0--

Generation = 3, Population = 24.
--010-01--
-0--3-311-
-01--200--
1--0-11--0
2-1-1---0-

*** Life<FredkinCell> 4x7 ***

Generation = 0, Population = 4.
---0--0
-----0-
-------
--0----

Generation = 1, Population = 8.
--0-0--
---00--
--0--0-
-0-0---

Generation = 2, Population = 12.
-0-010-
--01---
---0--0
0-0-00-

*** Life<FredkinCell> 4x11 ***

Generation = 0, Population = 9.
-----------
-00-0--0-0-
0-----0----
--00-------

Generation = 1, Population = 19.
-00-0--0-0-
-11--0----0
---000---0-
00110-0----

Generation = 2, Population = 17.
0-----0----
0---0100-0-
0-0-1---0--
1--2-0-0-0-

Generation = 3, Population = 23.
10--0-1--0-
-110--110-0
---02000-0-
20--0---0-0

Generation = 4, Population = 16.
2-----2----
----0-221--
0---3-1---0
311-1-0--0-

*** Life<FredkinCell> 7x5 ***

Generation = 0, Population = 1.
-----
-----
-----
-----
--0--
-----
-----

Generation = 1, Population = 4.
-----
-----
-----
--0--
-0-0-
--0--
-----

Generation = 2, Population = 4.
-----
-----
--0--
-----
0---0
-----
--0--

Generation = 3, Population = 13.
-----
--0--
-0-0-
0-0-0
-0-0-
0-0-0
-0-0-

Generation = 4, Population = 4.
--0--
-----
-----
-----
0---0
-----
--0--

Generation = 5, Population = 12.
-0-0-
--0--
-----
0---0
-0-0-
0-0-0
-0-0-

*** Life<FredkinCell> 5x12 ***

Generation = 0, Population = 12.
0----0---0--
0----------0
-----00--0--
-0------0---
---0-------0

Generation = 1, Population = 31.
10--0-0-0-00
10----0---0-
00--0110--00
0-00-000---0
-00-0---0-0-

*** Life<FredkinCell> 6x11 ***

Generation = 0, Population = 4.
-0---------
-----0-----
---------0-
-----------
-------0---
-----------

Generation = 1, Population = 15.
0-0--0-----
-0--0-0--0-
-----0--0-0
-------0-0-
------0-0--
-------0---

Generation = 2, Population = 8.
-0-0-----0-
---0---0---
-0---------
-----0-----
-----0-----
-----------

Generation = 3, Population = 25.
0--10--00-0
--010-0-00-
0-00-0-0---
-0--010----
----010----
-----0-----

Generation = 4, Population = 14.
-0---0-1-0-
-0---0---1-
-0---1---0-
-----------
-0-0---0---
-----1-----

*** Life<FredkinCell> 10x5 ***

Generation = 0, Population = 11.
--0--
-0---
00-0-
-00--
0----
0----
-----
-----
----0
-0---

Generation = 1, Population = 20.
---0-
-1-0-
110-0
0-1--
1-0--
10---
0----
----0
-0-0-
0-0-0
